// Jest Snapshot v1, https://goo.gl/fbAQLP

exports[`breadcrumb component should match the snapshot 1`] = `ShallowWrapper {}`;

exports[`breadcrumb component should match the snapshot onError 1`] = `ShallowWrapper {}`;

exports[`breadcrumb component should match the snapshot onLoading 1`] = `ShallowWrapper {}`;
